Lecture 2 - Visualization
…
# `filter()`

---
# `filter()` data

* filtering data with condition.

```r
penguins %>% 
  filter(species == "Chinstrap")
```

```
## # A tibble: 68 x 8
##    species island bill_length_mm
##    <fct>   <fct>           <dbl>
##  1 Chinst~ Dream            46.5
##  2 Chinst~ Dream            50  
##  3 Chinst~ Dream            51.3
##  4 Chinst~ Dream            45.4
##  5 Chinst~ Dream            52.7
##  6 Chinst~ Dream            45.2
##  7 Chinst~ Dream            46.1
##  8 Chinst~ Dream            51.3
##  9 Chinst~ Dream            46  
## 10 Chinst~ Dream            51.3
## # ... with 58 more rows, and 5 more
## #   variables: bill_depth_mm <dbl>,
## #   flipper_length_mm <int>,
## #   body_mass_g <int>, sex <fct>,
## #   year <int>
```

---
# `filter()` data option

* two conditions

```r
penguins %>% 
  filter(species == "Chinstrap", island == "Dream")
```

```
## # A tibble: 68 x 8
##    species island bill_length_mm
##    <fct>   <fct>           <dbl>
##  1 Chinst~ Dream            46.5
##  2 Chinst~ Dream            50  
##  3 Chinst~ Dream            51.3
##  4 Chinst~ Dream            45.4
##  5 Chinst~ Dream            52.7
##  6 Chinst~ Dream            45.2
##  7 Chinst~ Dream            46.1
##  8 Chinst~ Dream            51.3
##  9 Chinst~ Dream            46  
## 10 Chinst~ Dream            51.3
## # ... with 58 more rows, and 5 more
## #   variables: bill_depth_mm <dbl>,
## #   flipper_length_mm <int>,
## #   body_mass_g <int>, sex <fct>,
## #   year <int>
```

---
# `filter()` data option

* how about `or` condition?

```r
penguins %>% 
  filter(species %in% c("Chinstrap", "Adelie"))
```

```
## # A tibble: 220 x 8
##    species island bill_length_mm
##    <fct>   <fct>           <dbl>
##  1 Adelie  Torge~           39.1
##  2 Adelie  Torge~           39.5
##  3 Adelie  Torge~           40.3
##  4 Adelie  Torge~           NA  
##  5 Adelie  Torge~           36.7
##  6 Adelie  Torge~           39.3
##  7 Adelie  Torge~           38.9
##  8 Adelie  Torge~           39.2
##  9 Adelie  Torge~           34.1
## 10 Adelie  Torge~           42  
## # ... with 210 more rows, and 5 more
## #   variables: bill_depth_mm <dbl>,
## #   flipper_length_mm <int>,
## #   body_mass_g <int>, sex <fct>,
## #   year <int>
```
…
]

---
# `select()` multiple columns

```r
penguins %>% 
  select(bill_length_mm:body_mass_g)
```

```
## # A tibble: 344 x 4
##    bill_length_mm bill_depth_mm
##             <dbl>         <dbl>
##  1           39.1          18.7
##  2           39.5          17.4
##  3           40.3          18  
##  4           NA            NA  
##  5           36.7          19.3
##  6           39.3          20.6
##  7           38.9          17.8
##  8           39.2          19.6
##  9           34.1          18.1
## 10           42            20.2
## # ... with 334 more rows, and 2 more
## #   variables:
## #   flipper_length_mm <int>,
## #   body_mass_g <int>
```
…
---
# `arrange()` data

arrange based on `bill_length_mm`

```r
penguins %>% 
  select(species, bill_length_mm, bill_depth_mm) %>% 
  mutate(bill_length_mm = ceiling(bill_length_mm),
         bill_depth_mm = ceiling(bill_depth_mm)) %>% 
  arrange(bill_length_mm)
```

```
## # A tibble: 344 x 3
##    species bill_length_mm
##    <fct>            <dbl>
##  1 Adelie              33
##  2 Adelie              34
##  3 Adelie              34
##  4 Adelie              34
##  5 Adelie              35
##  6 Adelie              35
##  7 Adelie              35
##  8 Adelie              35
##  9 Adelie              35
## 10 Adelie              35
## # ... with 334 more rows, and 1 more
## #   variable: bill_depth_mm <dbl>
```
---
# `arrange()` data

add another reference column `bill_depth_mm`

```r
penguins %>% 
  select(species, bill_length_mm, bill_depth_mm) %>% 
  mutate(bill_length_mm = ceiling(bill_length_mm),
         bill_depth_mm = ceiling(bill_depth_mm)) %>% 
  arrange(bill_length_mm, bill_depth_mm)
```

```
## # A tibble: 344 x 3
##    species bill_length_mm
##    <fct>            <dbl>
##  1 Adelie              33
##  2 Adelie              34
##  3 Adelie              34
##  4 Adelie              34
##  5 Adelie              35
##  6 Adelie              35
##  7 Adelie              35
##  8 Adelie              35
##  9 Adelie              35
## 10 Adelie              35
## # ... with 334 more rows, and 1 more
## #   variable: bill_depth_mm <dbl>
```
---
# `arrange()` data

Sort `bill_depth_mm` column in descending order.

```r
penguins %>% 
  select(species, bill_length_mm, bill_depth_mm) %>% 
  mutate(bill_length_mm = ceiling(bill_length_mm),
         bill_depth_mm = ceiling(bill_depth_mm)) %>% 
  arrange(bill_length_mm, desc(bill_depth_mm))
```

```
## # A tibble: 344 x 3
##    species bill_length_mm
##    <fct>            <dbl>
##  1 Adelie              33
##  2 Adelie              34
##  3 Adelie              34
##  4 Adelie              34
##  5 Adelie              35
##  6 Adelie              35
##  7 Adelie              35
##  8 Adelie              35
##  9 Adelie              35
## 10 Adelie              35
## # ... with 334 more rows, and 1 more
## #   variable: bill_depth_mm <dbl>
```
…
