Lecture 3 - Data manipulation
…
]

---
# Read data with `map_dfr()`

```r
map_dfr(files, read_csv, .id = "species")
```

```
## # A tibble: 344 x 8
##    species    island  bill_length_mm bill_depth_mm
##    <chr>      <chr>            <dbl>         <dbl>
##  1 data/Adel~ Torger~           39.1          18.7
##  2 data/Adel~ Torger~           39.5          17.4
##  3 data/Adel~ Torger~           40.3          18  
##  4 data/Adel~ Torger~           NA            NA  
##  5 data/Adel~ Torger~           36.7          19.3
##  6 data/Adel~ Torger~           39.3          20.6
##  7 data/Adel~ Torger~           38.9          17.8
##  8 data/Adel~ Torger~           39.2          19.6
##  9 data/Adel~ Torger~           34.1          18.1
## 10 data/Adel~ Torger~           42            20.2
## # ... with 334 more rows, and 4 more variables:
## #   flipper_length_mm <dbl>, body_mass_g <dbl>,
## #   sex <chr>, year <dbl>
```
…
