Lasso with Tidymodels
…
lasso_model <- 
    linear_reg(penalty = 0.01, mixture = 0) %>%
    set_engine("glmnet")

lasso_fit <- 
    lasso_model %>% 
    fit(sale_price ~ ., data = train2)

options(max.print = 10)
lasso_fit %>% 
    tidy() %>% 
  filter(estimate > 0.001)

## # A tibble: 115 x 3
##    term           estimate penalty
##    <chr>             <dbl>   <dbl>
##  1 (Intercept)    12.0        0.01
##  2 lot_area        0.0157     0.01
##  3 overall_qual    0.0627     0.01
##  4 overall_cond    0.0344     0.01
##  5 year_built      0.0238     0.01
##  6 year_remod_add  0.0177     0.01
##  7 mas_vnr_area    0.00388    0.01
##  8 bsmt_fin_sf1    0.00756    0.01
##  9 bsmt_fin_sf2    0.00728    0.01
## 10 bsmt_unf_sf     0.00413    0.01
## # ... with 105 more rows
…
